haileycsy - Hands-on Ex 3
…
duplicates <- od_data %>%
  group_by_all() %>%
  filter(n() > 1) %>%
  ungroup()

duplicates

# A tibble: 1,154 × 4
   ORIGIN_BS DESTIN_BS TRIPS ORIGIN_SZ
   <chr>     <fct>     <dbl> <chr>    
 1 11009     01411         9 QTSZ01   
 2 11009     01411         9 QTSZ01   
 3 11009     01421        19 QTSZ01   
 4 11009     01421        19 QTSZ01   
 5 11009     01511        10 QTSZ01   
 6 11009     01511        10 QTSZ01   
 7 11009     01521         5 QTSZ01   
 8 11009     01521         5 QTSZ01   
 9 11009     01611         3 QTSZ01   
10 11009     01611         3 QTSZ01   
# ℹ 1,144 more rows
…
