haileycsy - In-class Ex 4
…
schools_sf <- st_as_sf(schools,
                       coords = c("longitude", "latitude"),
   # geocoding returns long & lat data projected in WGS84 form, with CRS 4326
   # This portion is required for st_as_sf to parse the lon/lat information
                       crs = 4326) %>%
              st_transform(crs = 3414)

schools_sf

Simple feature collection with 350 features and 2 fields
Geometry type: POINT
Dimension:     XY
Bounding box:  xmin: 11750.82 ymin: 28579.85 xmax: 42410.51 ymax: 48689.82
Projected CRS: SVY21 / Singapore TM
# A tibble: 350 × 3
   postal_code school_name                            geometry
 *       <dbl> <chr>                               <POINT [m]>
 1       88256 CANTONMENT PRIMARY SCHOOL      (28748.16 28660)
 2       99138 CHIJ ST. THERESA'S CONVENT  (26789.38 28647.44)
 3       99757 CHIJ (KELLOCK)              (27402.96 28579.85)
 4       99840 RADIN MAS PRIMARY SCHOOL    (26983.87 28603.93)
 5      109100 BLANGAH RISE PRIMARY SCHOOL (25248.36 28733.28)
 6      127368 KENT RIDGE SECONDARY SCHOOL (20384.47 31508.77)
 7      127391 TANGLIN SECONDARY SCHOOL     (19635.38 32445.8)
 8      128104 QIFA PRIMARY SCHOOL          (19477.9 32838.29)
 9      128806 NAN HUA PRIMARY SCHOOL      (19962.23 33496.24)
10      129857 PEI TONG PRIMARY SCHOOL     (20695.32 33200.66)
# ℹ 340 more rows
…
